 {

"header" : {
  "navbar" : {
    "new" : {
      "NEW" : "New",
      "NEWS" : "News",
      "BLOG" : "Blogs Post",
      "PAGE" : "Page",
      "USER" : "User"
    },
    "NOTIFICATIONS" : "Notifications"
  }
},
"aside" : {
  "nav" : {
    "HEADER" : "Menu",
    "DASHBOARD" : "Dashboard",

    "users" : {
      "USERS": "Users",
      "USER_LIST": "Users List",
      "MEMBERS": "Members List",
      "CREATE_USER": "Create User",
      "TEST": "test"
      },

    "profile" : {
      "EDIT_PROFILE": "Profile"
      },

    "donations" : {
      "DONATIONS" : "Donations",
      "Donations_List": "Donations List",
      "BNB_Registration": "Offline Registration",
      "Donations_Others": "Other Donations",
      "Donations_NYWALK": "NY Walk Donations",
      "Donations_HOUSTON": "HOUSTON Walk Donations",
      "Donations_SEATTLE": "SEATTLE Expo Donations"
      },

    "vendor" : {
      "VENDOR" : "Vendor",
      "Vendor_Seattle": "Vendor Seattle"
      },

    "programs" : {
      "PROGRAMS" : "Programs",
      "hlt": "HEROES Leadership Training"
      },

    "projects" : {
      "PROJECTS" : "Projects"
      },

    "map" : {
      "MAPS" : "Peace Parks",
      "Create_Peacemap": "Add Peace Park",
      "Manage_Peacemap": "Manage Peace Park"
      },

    "pages" : {
      "PAGES" : "Pages",
      "Create_Page": "Create Page",
      "Manage_Page": "Manage Page"
      },
    "callheroes" : {
      "TITILE" : "Call Heroes",
      "CALLHEROES": "Call Heroes",
      "HEROESONDUTY": "Heroes on Duty"
      },
     "news" : {
      "NEWS" : "News and Article",
      "Create_News": "Create News",
      "Manage_News": "Manage News",
      "Category": "News Category",
      "Create_Author": "Create Author",
      "Manage_Author": "Manage Author",
      "News_Tags": "News Tags"

      },

      "newsletter" : {
      "NEWSLETTER" : "News Letter",
      "Add_Subscriber": "Add Subscriber",
      "Subscribers_List": "Subscribers List",
      "Create_Newsletter": "Create Letter",
      "Manage_Newsletter": "Manage Letter"

      },

     "proposals" : {
      "PROPOSALS" : "Proposals",
      "Manage_Proposals": "Manage Proposals"
      },

    "calendar" : {
      "CALENDAR" : "Activity",
      "Add_Calendar": "Add Activity",
      "View_Calendar": "View Activity"
      },

     "feature" : {
      "FEATURE" : "Project",
      "Create_Feature": "Create Project",
      "Manage_Feature": "Manage Project"
      },

      "subscribers" : {
      "SUBSCRIBERS" : "Subscribers",
      "Add_Subscriber": "Add Subscriber",
      "Subscribers_List": "Subscribers List"
      },

    "others" : {
      "OTHERS" : "Others",
      "NEWSLETTERS" : "Newsletters",
      "sliders" : {
                "SLIDERS": "Sliders",
                "CREATE_ALBUM": "Create Album",
                "MANAGE_ALBUM": "Manage Album"
                },
      "images" : {
                "IMAGES": "Images",
                "SLIDER": "Slider",
                "BANNER": "Banner"
                },
      "eventmanager" : {
                "EVENT_MANAGER": "Event Manager",
                "CREATE_EVENT": "Create Event",
                "EVENT_LIST": "Event List"
                },
      "SLIDER" : "Slider Images",
      "TESTIMONIALS" : "Testimonials",
      "MENUCREATOR" : "Menu Creator"
    },
    "your_stuff" : {
      "OTHERS": "Other Stuff",
      "PROFILE" : "Profile",
      "LOGS" : "System Logs"
    },
    "system_stuff" : {
      "SYSTEM" : "System",
      "SETTINGS" : "Settings"
    }
  },
  "MEMORY" : "Memory",
  "DISK" : "Disk"
}

}
